[
  {
    "name": "Au Lac Do Brazil - Thịt Nướng Brazil - Pasteur",
    "avatar": "https://images.foody.vn/video/s800x450/foody-upload-api-foody-au-lac-do-25.12.2020.mp4_snapshot_00.00.655-210111142724.jpg",
    "category": "Nhà hàng, ",
    "cuisine": [
      "Brazil"
    ],
    "audience": "N/A",
    "address": "238 Pasteur, P. 6, Quận 3, TP. HCM",
    "exellent": "222",
    "good": "29",
    "average": "19",
    "bad": "5",
    "images": [
      "https://images.foody.vn/res/g1/1232/s180x180/foody-album255-jpg-799-635997890081770912.jpg",
      "https://images.foody.vn/res/g1/1232/s180x180/foody-album244-jpg-456-635997890078333179.jpg",
      "https://images.foody.vn/res/g1/1232/s180x180/foody-albumald2-jpg-173-635923360620089837.jpg",
      "https://images.foody.vn/res/g1/1232/s180x180/foody-albumald-jpg-363-635923360605737812.jpg",
      "https://images.foody.vn/res/g1/1232/s180x180/foody-albumald1-jpg-329-635923360586549779.jpg",
      "https://images.foody.vn/res/g1/1232/s180x180/foody-albumaulacda2-jpg-549-635888083574733648.jpg",
      "https://images.foody.vn/res/g1/1232/s180x180/foody-albumaulacau1-jpg-159-635888083555545614.jpg",
      "https://images.foody.vn/res/g1/1232/s180x180/foody-albumaulacdo5-jpg-971-635882145916517813.jpg",
      "https://images.foody.vn/res/g1/1232/s180x180/foody-albumaulacdo3-jpg-314-635882145910121802.jpg",
      "https://images.foody.vn/res/g1/1232/s180x180/foody-albumaulacdo2-jpg-826-635882145904505792.jpg"
    ]
  }
]